%YAML 1.1
%TAG !u! tag:unity3d.com,2011:
--- !u!1045 &1
EditorBuildSettings:
  m_ObjectHideFlags: 0
  serializedVersion: 2
  m_Scenes:
  - enabled: 1
    path: Assets/JScenes/Yunlin.unity
    guid: 9c45d19e8c29ce54595c4ce2ce5fdb18
  m_configObjects: {}
